<svg xmlns="http://www.w3.org/2000/svg" width="20" height="20" viewBox="0 0 20 20">
    <g fill="#F59F00" fill-rule="evenodd">
        <path d="M9.985.696c-2.53 0-2.848.01-3.842.056-.992.045-1.669.203-2.262.433a4.567 4.567 0 0 0-1.65 1.075 4.567 4.567 0 0 0-1.075 1.65c-.23.593-.388 1.27-.433 2.263-.046.994-.056 1.31-.056 3.842 0 2.53.01 2.848.056 3.842.045.992.203 1.669.433 2.262a4.567 4.567 0 0 0 1.075 1.65 4.567 4.567 0 0 0 1.65 1.075c.593.23 1.27.388 2.262.433.994.046 1.312.056 3.842.056 2.531 0 2.848-.01 3.842-.056.992-.045 1.67-.203 2.262-.433a4.567 4.567 0 0 0 1.65-1.075 4.568 4.568 0 0 0 1.076-1.65c.23-.593.388-1.27.433-2.262.045-.994.056-1.311.056-3.842s-.01-2.848-.056-3.842c-.045-.992-.203-1.67-.433-2.262a4.568 4.568 0 0 0-1.075-1.65 4.567 4.567 0 0 0-1.65-1.076c-.593-.23-1.27-.388-2.263-.433-.994-.045-1.31-.056-3.842-.056m0 1.68c2.488 0 2.783.009 3.766.053.908.042 1.402.194 1.73.321.435.17.746.371 1.072.697.326.326.528.637.697 1.072.127.328.28.822.32 1.73.045.983.055 1.277.055 3.766 0 2.488-.01 2.783-.054 3.765-.042.909-.194 1.402-.321 1.73-.17.436-.371.746-.697 1.072a2.886 2.886 0 0 1-1.072.697c-.328.128-.822.28-1.73.32-.983.046-1.277.055-3.766.055-2.488 0-2.783-.01-3.765-.054-.909-.041-1.402-.193-1.73-.32a2.887 2.887 0 0 1-1.072-.698 2.889 2.889 0 0 1-.697-1.071c-.128-.329-.28-.822-.321-1.73-.045-.983-.054-1.278-.054-3.766 0-2.489.01-2.783.054-3.766.042-.908.193-1.402.32-1.73.17-.435.372-.746.698-1.072a2.887 2.887 0 0 1 1.071-.697c.329-.127.822-.28 1.73-.32.983-.045 1.278-.055 3.766-.055"/>
        <path d="M9.904 13.22a3.123 3.123 0 1 1 0-6.247 3.123 3.123 0 0 1 0 6.246m0-7.934a4.811 4.811 0 1 0 0 9.622 4.811 4.811 0 0 0 0-9.622M16.062 5.093a1.155 1.155 0 1 1-2.31 0 1.155 1.155 0 0 1 2.31 0"/>
    </g>
</svg>
