<svg xmlns="http://www.w3.org/2000/svg" xmlns:xlink="http://www.w3.org/1999/xlink" width="91" height="64" viewBox="0 0 91 64">
    <defs>
        <path id="a" d="M.05.03h36.754v32.76H.05z"/>
        <path id="c" d="M0 .025h19.644v38.431H0z"/>
    </defs>
    <g fill="none" fill-rule="evenodd">
        <path fill="#FFB428" d="M24.918 39.883l-1.452 5.203c-.183.665-.703 1.14-1.325 1.208a1.475 1.475 0 0 1-.162.009c-.444 0-.866-.221-1.157-.606a1.802 1.802 0 0 1-.299-1.554l1.402-5.2c.178-.674.698-1.154 1.327-1.225l.051-.005c.055-.007.11-.01.165-.01.447 0 .87.223 1.162.613.334.445.438 1.02.288 1.567m-1.45-4.04c-.12 0-.243.006-.366.02l-.052.006c-1.377.154-2.527 1.183-2.899 2.594l-1.399 5.189c-.604 2.294 1.041 4.511 3.227 4.511.118 0 .238-.006.359-.02 1.368-.15 2.514-1.162 2.897-2.559l1.45-5.195c.631-2.303-1.018-4.547-3.217-4.547M39.155 17.78c.335.444.44 1.018.29 1.565L38 24.55c-.182.665-.702 1.14-1.325 1.209-.055.006-.11.009-.163.009-.445 0-.867-.22-1.159-.605a1.801 1.801 0 0 1-.3-1.552l1.396-5.201c.177-.674.698-1.155 1.326-1.226l.052-.006c.056-.006.112-.01.167-.01.446 0 .87.223 1.162.612m-1.533-2.451l-.052.006c-1.378.156-2.528 1.186-2.898 2.597l-1.393 5.19c-.602 2.294 1.046 4.507 3.232 4.507.12 0 .24-.007.363-.02 1.369-.153 2.515-1.167 2.896-2.564l1.444-5.196c.628-2.302-1.022-4.541-3.221-4.541-.123 0-.246.007-.371.02M49.747 23.925c-.237-.034-.487-.225-.67-.51a1.91 1.91 0 0 1-.247-1.359l.283-1.062.012-.043 1.514-5.675c.173-.647-.358-1.264-1.012-1.176a.929.929 0 0 0-.77.686l-1.605 6.04-.143.517c-.022.08-.041.16-.058.241l-.484 1.82c-.173.669-.687 1.15-1.31 1.228-.064.008-.129.011-.192.01-.438-.003-.856-.225-1.145-.606-.33-.435-.441-1-.307-1.54l1.665-6.517c.163-.64-.363-1.245-1.009-1.158a.922.922 0 0 0-.767.688l-.334 1.298-1.332 5.221c-.569 2.282 1.062 4.46 3.212 4.48.142.002.285-.006.431-.024 1.006-.124 1.884-.717 2.424-1.581.44.474.994.783 1.58.869 3.245.477 4.074-2.862 4.74-5.545.391-1.571 1.064-4.255 1.648-6.578.465.565 1.023.957 1.493 1.286.938.659 1.062.826.953 1.327l-.82 3.06c-.565 2.12-.218 4.082.95 5.383.83.923 2.014 1.43 3.278 1.43.28 0 .566-.026.851-.077 1.997-.355 3.916-2.208 3.717-5.06-.096-1.39-1.127-2.822-2.068-3.402a.91.91 0 0 0-1.262.313.941.941 0 0 0 .31 1.282c.509.314 1.14 1.23 1.189 1.938.127 1.832-1.053 2.887-2.203 3.092-.965.172-1.86-.11-2.455-.774-.748-.832-.938-2.123-.535-3.636l.825-3.08.009-.037c.408-1.818-.808-2.671-1.696-3.294-.974-.683-1.834-1.286-1.62-3.146.005-.047.014-.107.025-.174a.951.951 0 0 0-.685-1.085l-.014-.004a.932.932 0 0 0-1.138.683l-.05.2c-.573 2.277-1.872 7.441-2.482 9.896-.926 3.728-1.511 4.33-2.696 4.155M64.541 32.221a1.117 1.117 0 0 1 1.09-.84c.391 0 .658.214.768.322.136.134.437.505.302 1.062l-.249 1.024c-.128.528-.664 1.02-1.125 1.033l-1.48.095.694-2.696zm24.382-16.163c-1.039-1.282-2.608-2.094-4.305-2.228-2.614-.206-5.592 1.637-6.047 5.08a.93.93 0 0 0 .797 1.044.928.928 0 0 0 1.04-.8c.2-1.513 1.633-3.66 4.065-3.47 1.176.092 2.302.67 3.013 1.547.447.552.944 1.485.778 2.797-.391 3.08-2.8 3.663-5.233 3.994l-.027.004c-1.078.147-4.197.595-8.318 1.192.344-1.6.689-3.2 1.036-4.799a.938.938 0 0 0-1.827-.422l-1.338 5.53-9.852 1.43a.93.93 0 0 0 .266 1.84l9.114-1.323-.04.17c-1.437 5.565-4.565 11.924-7.114 12.492a1.641 1.641 0 0 1-1.554-.456 1.526 1.526 0 0 1-.38-1.468l.361-1.4 2.039-.132c1.28-.045 2.532-1.118 2.856-2.45l.248-1.024c.308-1.267-.218-2.576-1.395-3.288a2.672 2.672 0 0 0-.87-.336 2.978 2.978 0 0 0-3.488 2.173l-1.545 5.991a3.397 3.397 0 0 0 .842 3.226 3.476 3.476 0 0 0 3.288.98c1.673-.374 3.335-2.001 4.945-4.841-.146.721-.29 1.443-.43 2.162-.45 2.303-.768 5.72 1.66 8.793 1.525 1.93 4.241 3.278 6.92 3.435.251.015.511.023.773.023 2.461 0 4.987-1.203 6.754-3.217 1.81-2.062 2.613-4.738 2.258-7.534-.246-1.943-1.253-3.977-2.693-5.441-1.298-1.319-3.596-2.852-7.178-2.684-.45.02-.845.343-.909.79a.93.93 0 0 0 .963 1.068c5.218-.26 7.63 3.745 7.98 6.501.286 2.26-.357 4.415-1.811 6.071-1.4 1.595-3.456 2.586-5.364 2.586-.226 0-.45-.006-.665-.019-2.142-.126-4.383-1.225-5.576-2.734-1.506-1.906-1.905-4.152-1.294-7.28.718-3.67 1.515-7.393 2.287-10.993l.269-1.256.048-.225a1778.26 1778.26 0 0 1 8.983-1.289l.028-.003c1.86-.254 6.217-.848 6.82-5.602.196-1.534-.223-3.027-1.178-4.205z"/>
        <g transform="translate(14.9)">
            <mask id="b" fill="#fff">
                <use xlink:href="#a"/>
            </mask>
            <path fill="#FFB428" d="M15.207 29.12c.768-2.668 2.724-9.978 4.199-15.508l10.458-1.465.027-.004c1.873-.255 6.258-.852 6.866-5.63.196-1.542-.226-3.044-1.187-4.228C34.525.996 32.946.18 31.238.045c-2.63-.206-5.628 1.646-6.086 5.107a.934.934 0 0 0 .801 1.05A.934.934 0 0 0 27 5.396c.202-1.52 1.645-3.682 4.092-3.488 1.183.093 2.317.675 3.032 1.555a3.63 3.63 0 0 1 .783 2.812c-.394 3.097-2.818 3.681-5.267 4.015l-.031.004-9.68 1.356.134-.505.573-2.148a.932.932 0 1 0-1.802-.483l-.573 2.149-.338 1.268c-4.252.595-8.588 1.2-10.936 1.524l-.04.006c-1.87.257-6.245.861-6.85 5.63-.196 1.542.226 3.043 1.187 4.227 1.046 1.288 2.625 2.104 4.333 2.238.133.01.266.016.4.016 2.528 0 5.251-1.838 5.685-5.123a.933.933 0 0 0-1.849-.245c-.2 1.52-1.64 3.681-4.09 3.489-1.184-.093-2.318-.674-3.032-1.555a3.628 3.628 0 0 1-.784-2.811c.392-3.09 2.81-3.678 5.254-4.015l.04-.005c2.206-.305 6.164-.857 10.16-1.416-1.445 5.413-3.257 12.178-3.985 14.71-.508 1.766-1.133 2.143-1.62 2.274-.496.133-1.112-.025-1.534-.392-.449-.39-.64-.978-.551-1.697a.934.934 0 0 0-.812-1.041.934.934 0 0 0-1.039.813c-.165 1.345.254 2.53 1.179 3.335a3.707 3.707 0 0 0 2.4.895c.285 0 .569-.035.84-.108 1.85-.497 2.557-2.27 2.928-3.56" mask="url(#b)"/>
        </g>
        <path fill="#FFB428" d="M56.915 30.989c-.145 0-.291.01-.44.029-1.102.146-2.049.839-2.575 1.83-.62-.665-1.482-1.084-2.44-1.084-.145 0-.292.01-.44.03-1.394.184-2.543 1.242-2.903 2.674l-2.266 8.766c-.17.66.378 1.282 1.045 1.186a.947.947 0 0 0 .78-.704l2.26-8.781c.171-.682.692-1.177 1.327-1.261a1.5 1.5 0 0 1 .197-.013c.447 0 .876.22 1.175.606.342.439.46 1.012.328 1.561l-1.236 5.003-.42 1.628c-.171.66.377 1.281 1.045 1.186a.936.936 0 0 0 .398-.157c.015-.01.029-.023.043-.034l.056-.043a.947.947 0 0 0 .292-.481l.165-.663 2.086-8.108c.17-.682.692-1.177 1.326-1.26.066-.01.133-.014.197-.014.448 0 .877.221 1.176.606.341.44.46 1.013.328 1.562l-1.64 6.64a.943.943 0 0 0 1.04 1.168.94.94 0 0 0 .777-.707l.33-1.323 1.313-5.319c.56-2.325-1.126-4.523-3.324-4.523"/>
        <path fill="#FFB428" d="M50.408 46.072a.93.93 0 0 0-1.32-.04c-1.132 1.071-2.406 1.298-3.497.621-.992-.615-1.818-2.09-1.287-3.874.747-2.508 1.266-4.507 1.503-5.542.42-1.833-.825-2.684-1.734-3.305-1.003-.687-1.888-1.292-1.638-3.213a7.847 7.847 0 0 1 .017-.119.946.946 0 0 0-.692-1.067l-.028-.007a.94.94 0 0 0-1.147.679c-.554 2.164-1.943 7.594-2.59 10.155-.947 3.748-1.543 4.351-2.748 4.175-.24-.035-.495-.227-.68-.513-.285-.444-.31-.99-.153-1.548l1.778-6.836a.942.942 0 0 0-1.04-1.173.94.94 0 0 0-.778.697l-2.248 8.688c-.17.675-.689 1.164-1.32 1.247a1.5 1.5 0 0 1-.197.014c-.445 0-.872-.219-1.17-.6a1.809 1.809 0 0 1-.326-1.545l1.633-6.571a.935.935 0 0 0-1.036-1.155.934.934 0 0 0-.774.7l-.328 1.308-1.307 5.263c-.557 2.301 1.121 4.476 3.308 4.476.145 0 .29-.01.439-.029a3.402 3.402 0 0 0 2.332-1.432c.445.471 1.005.779 1.598.866 3.295.483 4.145-2.873 4.827-5.57.4-1.583 1.09-4.289 1.688-6.629.476.569 1.049.96 1.53 1.29.964.66 1.081.821.964 1.334-.23 1.006-.75 2.955-1.472 5.424-.716 2.45.165 4.811 2.095 6.009a4.28 4.28 0 0 0 2.273.66c1.205 0 2.43-.514 3.485-1.512a.942.942 0 0 0 .04-1.326z"/>
        <g transform="translate(0 25.015)">
            <mask id="d" fill="#fff">
                <use xlink:href="#c"/>
            </mask>
            <path fill="#FFB428" d="M12.154 31.61c-1.119 4.002-3.264 5.338-4.895 4.89-1.887-.52-2.344-2.883-1.816-4.841a9.488 9.488 0 0 1 8.606-7.004c-.836 3.09-1.582 5.834-1.895 6.955m6.864-8.002a11.8 11.8 0 0 0-2.56-.703c.855-3.16 2.047-7.59 2.563-9.505a.945.945 0 0 0-1.817-.52c-.083.274-.163.529-.198.617-.768 1.931-2.729 5.145-7.215 5.059-2.478-.052-4.968-1.492-6.499-3.76-1.53-2.27-1.834-4.952-.853-7.553.102-.272.224-.544.36-.808C3.836 4.432 5.764 2.853 7.955 2.21c2.344-.686 5.06-.24 6.92 1.137.938.696 1.601 1.83 1.688 2.89.062.758-.167 1.41-.678 1.938-.501.517-1.201.802-1.878.763a.94.94 0 0 0-.981 1.05c.055.47.476.804.949.823 1.2.046 2.382-.436 3.25-1.331.891-.92 1.306-2.094 1.2-3.396-.131-1.599-1.066-3.224-2.44-4.242C13.673.129 10.315-.432 7.431.414c-2.672.783-5.023 2.711-6.29 5.159-.17.329-.322.668-.45 1.009-1.201 3.186-.827 6.475 1.054 9.263 1.864 2.763 4.932 4.519 8.007 4.582 2.632.052 4.57-.82 5.983-2.01l-1.174 4.348A11.36 11.36 0 0 0 3.64 31.17c-1.024 3.793.845 6.506 3.124 7.135.361.1.736.151 1.118.151 2.286 0 4.816-1.85 6.07-6.34.33-1.177 1.13-4.126 2.014-7.39a9.94 9.94 0 0 1 2.393.634.936.936 0 0 0 1.269-.698c.087-.448-.187-.885-.61-1.054" mask="url(#d)"/>
        </g>
    </g>
</svg>
